Input -Output with R
…
summarise() reduce múltiples valores a un único resumen

arrange() cambia el orden de las filas.

Al ser una librería desarrollada por terceros, hay que instalar la librería (se hace una sola vez) y cargarla

install.packages("dplyr")
library(dplyr)

Vamos a trabajar con el conjunto de datos starwars

starwars

# A tibble: 87 x 14
   name     height  mass hair_color skin_color eye_color birth_year sex   gender
   <chr>     <int> <dbl> <chr>      <chr>      <chr>          <dbl> <chr> <chr> 
 1 Luke Sk~    172    77 blond      fair       blue            19   male  mascu~
 2 C-3PO       167    75 <NA>       gold       yellow         112   none  mascu~
 3 R2-D2        96    32 <NA>       white, bl~ red             33   none  mascu~
 4 Darth V~    202   136 none       white      yellow          41.9 male  mascu~
 5 Leia Or~    150    49 brown      light      brown           19   fema~ femin~
 6 Owen La~    178   120 brown, gr~ light      blue            52   male  mascu~
 7 Beru Wh~    165    75 brown      light      blue            47   fema~ femin~
 8 R5-D4        97    32 <NA>       white, red red             NA   none  mascu~
 9 Biggs D~    183    84 black      light      brown           24   male  mascu~
10 Obi-Wan~    182    77 auburn, w~ fair       blue-gray       57   male  mascu~
# i 77 more rows
# i 5 more variables: homeworld <chr>, species <chr>, films <list>,
#   vehicles <list>, starships <list>
…
O queremos quedarnos con aquellos registros que no sean humanos

starwars |> 
  dplyr::filter(species != "Human")

# A tibble: 48 x 14
   name     height  mass hair_color skin_color eye_color birth_year sex   gender
   <chr>     <int> <dbl> <chr>      <chr>      <chr>          <dbl> <chr> <chr> 
 1 C-3PO       167    75 <NA>       gold       yellow           112 none  mascu~
 2 R2-D2        96    32 <NA>       white, bl~ red               33 none  mascu~
 3 R5-D4        97    32 <NA>       white, red red               NA none  mascu~
 4 Chewbac~    228   112 brown      unknown    blue             200 male  mascu~
 5 Greedo      173    74 <NA>       green      black             44 male  mascu~
 6 Jabba D~    175  1358 <NA>       green-tan~ orange           600 herm~ mascu~
 7 Yoda         66    17 white      green      brown            896 male  mascu~
 8 IG-88       200   140 none       metal      red               15 none  mascu~
 9 Bossk       190   113 none       green      red               53 male  mascu~
10 Ackbar      180    83 none       brown mot~ orange            41 male  mascu~
# i 38 more rows
# i 5 more variables: homeworld <chr>, species <chr>, films <list>,
#   vehicles <list>, starships <list>
…
Supongamos que no sabemos de antemano, cuantos tipos de especies hay, y deseamos saberlo para aplicar los filtros adecuados. En R base tendríamos que extraer la columna y usar la función unique() (unique(starwars$species)). En dplyr tenemos la función distinct()

starwars |> 
  select(species) |> 
  distinct()

# A tibble: 38 x 1
   species       
   <chr>         
 1 Human         
 2 Droid         
 3 Wookiee       
 4 Rodian        
 5 Hutt          
 6 <NA>          
 7 Yoda's species
 8 Trandoshan    
 9 Mon Calamari  
10 Ewok          
# i 28 more rows

Si queremos contar cuantos registros hay por especie, usamos la función count()

starwars |> 
  count(species)

# A tibble: 38 x 2
   species       n
   <chr>     <int>
 1 Aleena        1
 2 Besalisk      1
 3 Cerean        1
 4 Chagrian      1
 5 Clawdite      1
 6 Droid         6
 7 Dug           1
 8 Ewok          1
 9 Geonosian     1
10 Gungan        3
# i 28 more rows

Si deseamos que presente la información en orden descendente

starwars |> 
  count(species, sort = TRUE)

# A tibble: 38 x 2
   species      n
   <chr>    <int>
 1 Human       35
 2 Droid        6
 3 <NA>         4
 4 Gungan       3
 5 Kaminoan     2
 6 Mirialan     2
 7 Twi'lek      2
 8 Wookiee      2
 9 Zabrak       2
10 Aleena       1
# i 28 more rows

Si una vez escogida la columna deseada, desea ordenarla como en la caso anterior, usamos el verbo arrange(). En este caso seleccionamos la columna de masa corporal y nombre

starwars %>%
  select(name, mass) %>%
  arrange(mass)

# A tibble: 87 x 2
   name                   mass
   <chr>                 <dbl>
 1 Ratts Tyerel             15
 2 Yoda                     17
 3 Wicket Systri Warrick    20
 4 R2-D2                    32
 5 R5-D4                    32
 6 Sebulba                  40
 7 Padmé Amidala            45
 8 Dud Bolt                 45
 9 Wat Tambor               48
10 Sly Moore                48
# i 77 more rows

Para ordenarlo de mayor a menos usamos la función desc() dentro de arrange()

starwars %>%
  select(name, mass) %>%
  arrange(desc(mass))

# A tibble: 87 x 2
   name                   mass
   <chr>                 <dbl>
 1 Jabba Desilijic Tiure  1358
 2 Grievous                159
 3 IG-88                   140
 4 Darth Vader             136
 5 Tarfful                 136
 6 Owen Lars               120
 7 Bossk                   113
 8 Chewbacca               112
 9 Jek Tono Porkins        110
10 Dexter Jettster         102
# i 77 more rows

Supongamos que deseamos seleccionar solo las columnas que cumplan una determinada condición, esto se puede hacer con la función where() dentro del verbo select(). Por ejemplo, si deseamos solo las columnas que contengan variables numéricas

starwars %>%
  select(where(is.numeric))

# A tibble: 87 x 3
   height  mass birth_year
    <int> <dbl>      <dbl>
 1    172    77       19  
 2    167    75      112  
 3     96    32       33  
 4    202   136       41.9
 5    150    49       19  
 6    178   120       52  
 7    165    75       47  
 8     97    32       NA  
 9    183    84       24  
10    182    77       57  
# i 77 more rows

Pero, también existen variantes de select() más específicas. Por ejemplo, para este caso también podríamos haber usado select_if() y la condición

starwars %>%
  select_if(is.numeric)

# A tibble: 87 x 3
   height  mass birth_year
    <int> <dbl>      <dbl>
 1    172    77       19  
 2    167    75      112  
 3     96    32       33  
 4    202   136       41.9
 5    150    49       19  
 6    178   120       52  
 7    165    75       47  
 8     97    32       NA  
 9    183    84       24  
10    182    77       57  
# i 77 more rows

Note

Hay varias funciones helpers que permiten hacer una selección más fina de columnas. Para echar un vistazo ejecutar ?select

Algo que solemos realizar de manera muy frecuente, es crear nuevas columnas transformando las existentes, esto lo hacemos con el verbo mutate()

starwars |> 
  mutate(H_W = height / mass)

# A tibble: 87 x 15
   name     height  mass hair_color skin_color eye_color birth_year sex   gender
   <chr>     <int> <dbl> <chr>      <chr>      <chr>          <dbl> <chr> <chr> 
 1 Luke Sk~    172    77 blond      fair       blue            19   male  mascu~
 2 C-3PO       167    75 <NA>       gold       yellow         112   none  mascu~
 3 R2-D2        96    32 <NA>       white, bl~ red             33   none  mascu~
 4 Darth V~    202   136 none       white      yellow          41.9 male  mascu~
 5 Leia Or~    150    49 brown      light      brown           19   fema~ femin~
 6 Owen La~    178   120 brown, gr~ light      blue            52   male  mascu~
 7 Beru Wh~    165    75 brown      light      blue            47   fema~ femin~
 8 R5-D4        97    32 <NA>       white, red red             NA   none  mascu~
 9 Biggs D~    183    84 black      light      brown           24   male  mascu~
10 Obi-Wan~    182    77 auburn, w~ fair       blue-gray       57   male  mascu~
# i 77 more rows
# i 6 more variables: homeworld <chr>, species <chr>, films <list>,
#   vehicles <list>, starships <list>, H_W <dbl>

Es posible crear varias columnas al mismo tiempo

starwars |> 
  mutate(H_W = height / mass,
         fakeVar = sqrt(mass))

# A tibble: 87 x 16
   name     height  mass hair_color skin_color eye_color birth_year sex   gender
   <chr>     <int> <dbl> <chr>      <chr>      <chr>          <dbl> <chr> <chr> 
 1 Luke Sk~    172    77 blond      fair       blue            19   male  mascu~
 2 C-3PO       167    75 <NA>       gold       yellow         112   none  mascu~
 3 R2-D2        96    32 <NA>       white, bl~ red             33   none  mascu~
 4 Darth V~    202   136 none       white      yellow          41.9 male  mascu~
 5 Leia Or~    150    49 brown      light      brown           19   fema~ femin~
 6 Owen La~    178   120 brown, gr~ light      blue            52   male  mascu~
 7 Beru Wh~    165    75 brown      light      blue            47   fema~ femin~
 8 R5-D4        97    32 <NA>       white, red red             NA   none  mascu~
 9 Biggs D~    183    84 black      light      brown           24   male  mascu~
10 Obi-Wan~    182    77 auburn, w~ fair       blue-gray       57   male  mascu~
# i 77 more rows
# i 7 more variables: homeworld <chr>, species <chr>, films <list>,
#   vehicles <list>, starships <list>, H_W <dbl>, fakeVar <dbl>
…
# A tibble: 3 x 2
  gender    altura_media
  <chr>            <dbl>
1 feminine          167.
2 masculine         177.
3 <NA>              175 

O el peso medio por planeta de origen

starwars |> 
  group_by(homeworld) |> 
  summarise(peso_medio = mean(mass, na.rm = TRUE))

# A tibble: 49 x 2
   homeworld      peso_medio
   <chr>               <dbl>
 1 Alderaan             64  
 2 Aleen Minor          15  
 3 Bespin               79  
 4 Bestine IV          110  
 5 Cato Neimoidia       90  
 6 Cerea                82  
 7 Champala            NaN  
 8 Chandrila           NaN  
 9 Concord Dawn         79  
10 Corellia             78.5
# i 39 more rows

Recordar que lo podemos ordenar

starwars |> 
  group_by(homeworld) |> 
  summarise(peso_medio = mean(mass, na.rm = TRUE)) |> 
  arrange(desc(peso_medio))

# A tibble: 49 x 2
   homeworld      peso_medio
   <chr>               <dbl>
 1 Nal Hutta          1358  
 2 Kalee               159  
 3 Kashyyyk            124  
 4 Trandosha           113  
 5 Bestine IV          110  
 6 Ojom                102  
 7 Cato Neimoidia       90  
 8 Glee Anselm          87  
 9 Tatooine             85.4
10 Haruun Kal           84  
# i 39 more rows

Número de registros por planeta ordenado de mayor a menor

starwars |> 
  group_by(homeworld) |> 
  summarise(registros = n()) |> 
  arrange(desc(registros))

# A tibble: 49 x 2
   homeworld registros
   <chr>         <int>
 1 Naboo            11
 2 Tatooine         10
 3 <NA>             10
 4 Alderaan          3
 5 Coruscant         3
 6 Kamino            3
 7 Corellia          2
 8 Kashyyyk          2
 9 Mirial            2
10 Ryloth            2
# i 39 more rows

Y para finalizar, si deseamos cambiar el nombre de una columna, usamos la función rename(), y para cambiar el orden de las columnas relocate()

starwars |> 
  rename(planeta = homeworld)

# A tibble: 87 x 14
   name     height  mass hair_color skin_color eye_color birth_year sex   gender
   <chr>     <int> <dbl> <chr>      <chr>      <chr>          <dbl> <chr> <chr> 
 1 Luke Sk~    172    77 blond      fair       blue            19   male  mascu~
 2 C-3PO       167    75 <NA>       gold       yellow         112   none  mascu~
 3 R2-D2        96    32 <NA>       white, bl~ red             33   none  mascu~
 4 Darth V~    202   136 none       white      yellow          41.9 male  mascu~
 5 Leia Or~    150    49 brown      light      brown           19   fema~ femin~
 6 Owen La~    178   120 brown, gr~ light      blue            52   male  mascu~
 7 Beru Wh~    165    75 brown      light      blue            47   fema~ femin~
 8 R5-D4        97    32 <NA>       white, red red             NA   none  mascu~
 9 Biggs D~    183    84 black      light      brown           24   male  mascu~
10 Obi-Wan~    182    77 auburn, w~ fair       blue-gray       57   male  mascu~
# i 77 more rows
# i 5 more variables: planeta <chr>, species <chr>, films <list>,
#   vehicles <list>, starships <list>

starwars |> 
  relocate(species, .after = mass)

# A tibble: 87 x 14
   name    height  mass species hair_color skin_color eye_color birth_year sex  
   <chr>    <int> <dbl> <chr>   <chr>      <chr>      <chr>          <dbl> <chr>
 1 Luke S~    172    77 Human   blond      fair       blue            19   male 
 2 C-3PO      167    75 Droid   <NA>       gold       yellow         112   none 
 3 R2-D2       96    32 Droid   <NA>       white, bl~ red             33   none 
 4 Darth ~    202   136 Human   none       white      yellow          41.9 male 
 5 Leia O~    150    49 Human   brown      light      brown           19   fema~
 6 Owen L~    178   120 Human   brown, gr~ light      blue            52   male 
 7 Beru W~    165    75 Human   brown      light      blue            47   fema~
 8 R5-D4       97    32 Droid   <NA>       white, red red             NA   none 
 9 Biggs ~    183    84 Human   black      light      brown           24   male 
10 Obi-Wa~    182    77 Human   auburn, w~ fair       blue-gray       57   male 
# i 77 more rows
# i 5 more variables: gender <chr>, homeworld <chr>, films <list>,
#   vehicles <list>, starships <list>

Algo adicional que conviene saber y combina bien con las funciones map, los tibbles anidados. Los tibbles anidados se crean con el verbo nest_by()

starwars_nested <- starwars |>
  nest_by(homeworld)

starwars_nested

# A tibble: 49 x 2
# Rowwise:  homeworld
   homeworld                     data
   <chr>          <list<tibble[,13]>>
 1 Alderaan                  [3 x 13]
 2 Aleen Minor               [1 x 13]
 3 Bespin                    [1 x 13]
 4 Bestine IV                [1 x 13]
 5 Cato Neimoidia            [1 x 13]
 6 Cerea                     [1 x 13]
 7 Champala                  [1 x 13]
 8 Chandrila                 [1 x 13]
 9 Concord Dawn              [1 x 13]
10 Corellia                  [2 x 13]
# i 39 more rows
…
ggplot2: Elegant Graphics for Data Analysis (3e) by Hadley Wickham, Danielle Navarro, and Thomas Lin Pedersen: An essential read for understanding the philosophy underpinning ggplot2, known as the Grammar of Graphics.

The Grammar of Graphics by Leland Wilkinson: A foundational text on the principles of The Grammar of Graphics, highly recommended for enthusiasts of visualization.

Let’s proceed by installing and loading the ggplot2 library.

install.packages(ggplot2)
library(ggplot2)

We’re going to use datasets provided by the ggplot2 library as examples. Let’s start with mpg.

mpg

# A tibble: 234 x 11
   manufacturer model      displ  year   cyl trans drv     cty   hwy fl    class
   <chr>        <chr>      <dbl> <int> <int> <chr> <chr> <int> <int> <chr> <chr>
 1 audi         a4           1.8  1999     4 auto~ f        18    29 p     comp~
 2 audi         a4           1.8  1999     4 manu~ f        21    29 p     comp~
 3 audi         a4           2    2008     4 manu~ f        20    31 p     comp~
 4 audi         a4           2    2008     4 auto~ f        21    30 p     comp~
 5 audi         a4           2.8  1999     6 auto~ f        16    26 p     comp~
 6 audi         a4           2.8  1999     6 manu~ f        18    26 p     comp~
 7 audi         a4           3.1  2008     6 auto~ f        18    27 p     comp~
 8 audi         a4 quattro   1.8  1999     4 manu~ 4        18    26 p     comp~
 9 audi         a4 quattro   1.8  1999     4 auto~ 4        16    25 p     comp~
10 audi         a4 quattro   2    2008     4 manu~ 4        20    28 p     comp~
# i 224 more rows
…
We will explore a different dataset that is well-suited for creating line graphs, the economics dataset

economics

# A tibble: 574 x 6
   date         pce    pop psavert uempmed unemploy
   <date>     <dbl>  <dbl>   <dbl>   <dbl>    <dbl>
 1 1967-07-01  507. 198712    12.6     4.5     2944
 2 1967-08-01  510. 198911    12.6     4.7     2945
 3 1967-09-01  516. 199113    11.9     4.6     2958
 4 1967-10-01  512. 199311    12.9     4.9     3143
 5 1967-11-01  517. 199498    12.8     4.7     3066
 6 1967-12-01  525. 199657    11.8     4.8     3018
 7 1968-01-01  531. 199808    11.7     5.1     2878
 8 1968-02-01  534. 199920    12.3     4.5     3001
 9 1968-03-01  544. 200056    11.7     4.1     2877
10 1968-04-01  544  200208    12.3     4.6     2709
# i 564 more rows
…
